Modify Milestone 4 to use arrays of strings instead of array of integers

#include<stdio.h>
#include<stdlib.h>
char **array = (char**)calloc(10,sizeof(char**));  
int n=0;
int add(char* element)
{
	int i,j,k;
		for(i=0;i<n;i++)
		{
			if(n==0)
			{
			continue;
			}
			else if(element[0]='\0')
			{
				return NULL;

			}
			else if(stringCmp(element,array)==0)
			{
				return NULL;
			}
		}
		n=n+1;
		k=strLen(element);//size of element
		array[n]=(char *)calloc(k,sizeof(char));
		str_copy(element,str1);
		return 1;
}
int str_copy(char *str1, char *str2)
{
	int a,i=0,l;
	l=strLen(str1);
	
	if(l==-1){
		return -1;
	}

	 for(i = 0; str1[i] != '\0'; ++i)
    {
        str2[i] = str1[i];
    }

    str2[i] = '\0';


	return 0;
	
}

int stringCmp(char* str1,char* str2)
{
	int i,large,small;
	int numStr1,numStr2,str1Len,str2Len;
	str1Len = strLen(str1);
	str2Len = strLen(str2);
	if(str1Len>str2Len)
	{
		large=str1Len;
		small=str2Len;
	}
	else{
		large=str2Len;
		small=str1Len;
	}
	
	for(i=0;i<large;i++)
	{
		if(str1[i]>str2[i])
		{
			return 1;
		}
		
		else if(str1[i]<str2[i])
		{
			return -1;
		}
	}
	if(large==small)
	{
		return 0;
	}
	else if(large>small)
	{
		return 1;
	}
	
}


int strLen(char str[])
{
	int x=0;
	if(str[0]=='\0')
	{
		return -1;
	}
	while(str[x]!='\0')
	{
		x++;
	}
	return x;
}

void main()
{
int n;

add("asbd");

	
}

---------------------------------------------------------------------------------------------------------------